[ 4335.302582] proc dir created
[ 4335.302585] file created
[ 4335.302736] virtual memory allocated
[ 4335.302738] character device 258998272 registered
[ 4335.302739] character device added
[ 4335.302740] timer initialized
[ 4335.302740] lock initialized
[ 4335.302741] MP3 MODULE LOADED
[ 4339.570181] task 9452 arrived
[ 4339.570236] work queue job created
[ 4339.570237] task 9452 registered!
[ 4339.570474] task 9453 arrived
[ 4339.570477] task 9453 registered!
[ 4339.620250] work queue job awake
[ 4339.620255] work queue job sleep
[ 4339.670247] work queue job awake
[ 4339.670253] work queue job sleep
[ 4339.720260] work queue job awake
[ 4339.720265] work queue job sleep
[ 4339.770264] work queue job awake
[ 4339.770267] work queue job sleep
[ 4339.820253] work queue job awake
[ 4339.820256] work queue job sleep
[ 4339.870260] work queue job awake
[ 4339.870263] work queue job sleep
[ 4339.920295] work queue job awake
[ 4339.920298] work queue job sleep
[ 4339.970257] work queue job awake
[ 4339.970260] work queue job sleep
[ 4340.020257] work queue job awake
[ 4340.020261] work queue job sleep
[ 4340.070258] work queue job awake
[ 4340.070262] work queue job sleep
[ 4340.120301] work queue job awake
[ 4340.120305] work queue job sleep
[ 4340.170257] work queue job awake
[ 4340.170261] work queue job sleep
[ 4340.220266] work queue job awake
[ 4340.220269] work queue job sleep
[ 4340.270249] work queue job awake
[ 4340.270253] work queue job sleep
[ 4340.320287] work queue job awake
[ 4340.320292] work queue job sleep
[ 4340.370246] work queue job awake
[ 4340.370250] work queue job sleep
[ 4340.420301] work queue job awake
[ 4340.420306] work queue job sleep
[ 4340.470256] work queue job awake
[ 4340.470260] work queue job sleep
[ 4340.520272] work queue job awake
[ 4340.520278] work queue job sleep
[ 4340.570254] work queue job awake
[ 4340.570259] work queue job sleep
[ 4340.620251] work queue job awake
[ 4340.620255] work queue job sleep
[ 4340.670259] work queue job awake
[ 4340.670265] work queue job sleep
[ 4340.720248] work queue job awake
[ 4340.720254] work queue job sleep
[ 4340.770263] work queue job awake
[ 4340.770269] work queue job sleep
[ 4340.820254] work queue job awake
[ 4340.820258] work queue job sleep
[ 4340.870253] work queue job awake
[ 4340.870258] work queue job sleep
[ 4340.920253] work queue job awake
[ 4340.920258] work queue job sleep
[ 4340.970257] work queue job awake
[ 4340.970260] work queue job sleep
[ 4341.020272] work queue job awake
[ 4341.020277] work queue job sleep
[ 4341.070263] work queue job awake
[ 4341.070267] work queue job sleep
[ 4341.120255] work queue job awake
[ 4341.120259] work queue job sleep
[ 4341.170266] work queue job awake
[ 4341.170272] work queue job sleep
[ 4341.220255] work queue job awake
[ 4341.220260] work queue job sleep
[ 4341.270246] work queue job awake
[ 4341.270249] work queue job sleep
[ 4341.320252] work queue job awake
[ 4341.320256] work queue job sleep
[ 4341.370263] work queue job awake
[ 4341.370268] work queue job sleep
[ 4341.420269] work queue job awake
[ 4341.420274] work queue job sleep
[ 4341.470252] work queue job awake
[ 4341.470256] work queue job sleep
[ 4341.520252] work queue job awake
[ 4341.520258] work queue job sleep
[ 4341.570252] work queue job awake
[ 4341.570256] work queue job sleep
[ 4341.620253] work queue job awake
[ 4341.620257] work queue job sleep
[ 4341.670244] work queue job awake
[ 4341.670250] work queue job sleep
[ 4341.720323] work queue job awake
[ 4341.720330] work queue job sleep
[ 4341.770248] work queue job awake
[ 4341.770254] work queue job sleep
[ 4341.820278] work queue job awake
[ 4341.820285] work queue job sleep
[ 4341.870274] work queue job awake
[ 4341.870280] work queue job sleep
[ 4341.920268] work queue job awake
[ 4341.920275] work queue job sleep
[ 4341.970251] work queue job awake
[ 4341.970258] work queue job sleep
[ 4342.020275] work queue job awake
[ 4342.020282] work queue job sleep
[ 4342.070262] work queue job awake
[ 4342.070269] work queue job sleep
[ 4342.120276] work queue job awake
[ 4342.120283] work queue job sleep
[ 4342.170251] work queue job awake
[ 4342.170258] work queue job sleep
[ 4342.220253] work queue job awake
[ 4342.220260] work queue job sleep
[ 4342.270246] work queue job awake
[ 4342.270253] work queue job sleep
[ 4342.320283] work queue job awake
[ 4342.320286] work queue job sleep
[ 4342.370257] work queue job awake
[ 4342.370262] work queue job sleep
[ 4342.420268] work queue job awake
[ 4342.420274] work queue job sleep
[ 4342.470263] work queue job awake
[ 4342.470269] work queue job sleep
[ 4342.520252] work queue job awake
[ 4342.520258] work queue job sleep
[ 4342.570248] work queue job awake
[ 4342.570253] work queue job sleep
[ 4342.620303] work queue job awake
[ 4342.620310] work queue job sleep
[ 4342.670253] work queue job awake
[ 4342.670258] work queue job sleep
[ 4342.720252] work queue job awake
[ 4342.720257] work queue job sleep
[ 4342.770258] work queue job awake
[ 4342.770264] work queue job sleep
[ 4342.820241] work queue job awake
[ 4342.820247] work queue job sleep
[ 4342.870245] work queue job awake
[ 4342.870250] work queue job sleep
[ 4342.920242] work queue job awake
[ 4342.920246] work queue job sleep
[ 4342.970255] work queue job awake
[ 4342.970260] work queue job sleep
[ 4343.020254] work queue job awake
[ 4343.020259] work queue job sleep
[ 4343.070250] work queue job awake
[ 4343.070253] work queue job sleep
[ 4343.120250] work queue job awake
[ 4343.120253] work queue job sleep
[ 4343.170256] work queue job awake
[ 4343.170260] work queue job sleep
[ 4343.220249] work queue job awake
[ 4343.220254] work queue job sleep
[ 4343.270243] work queue job awake
[ 4343.270247] work queue job sleep
[ 4343.320249] work queue job awake
[ 4343.320254] work queue job sleep
[ 4343.370248] work queue job awake
[ 4343.370254] work queue job sleep
[ 4343.420248] work queue job awake
[ 4343.420253] work queue job sleep
[ 4343.470239] work queue job awake
[ 4343.470244] work queue job sleep
[ 4343.520248] work queue job awake
[ 4343.520254] work queue job sleep
[ 4343.570240] work queue job awake
[ 4343.570247] work queue job sleep
[ 4343.620329] work queue job awake
[ 4343.620334] work queue job sleep
[ 4343.670245] work queue job awake
[ 4343.670251] work queue job sleep
[ 4343.720258] work queue job awake
[ 4343.720264] work queue job sleep
[ 4343.770250] work queue job awake
[ 4343.770256] work queue job sleep
[ 4343.820262] work queue job awake
[ 4343.820268] work queue job sleep
[ 4343.870239] work queue job awake
[ 4343.870246] work queue job sleep
[ 4343.920248] work queue job awake
[ 4343.920254] work queue job sleep
[ 4343.970244] work queue job awake
[ 4343.970250] work queue job sleep
[ 4344.020243] work queue job awake
[ 4344.020248] work queue job sleep
[ 4344.070245] work queue job awake
[ 4344.070249] work queue job sleep
[ 4344.120245] work queue job awake
[ 4344.120250] work queue job sleep
[ 4344.170269] work queue job awake
[ 4344.170276] work queue job sleep
[ 4344.220245] work queue job awake
[ 4344.220252] work queue job sleep
[ 4344.270240] work queue job awake
[ 4344.270246] work queue job sleep
[ 4344.320276] work queue job awake
[ 4344.320283] work queue job sleep
[ 4344.370248] work queue job awake
[ 4344.370254] work queue job sleep
[ 4344.420249] work queue job awake
[ 4344.420254] work queue job sleep
[ 4344.470246] work queue job awake
[ 4344.470250] work queue job sleep
[ 4344.520256] work queue job awake
[ 4344.520261] work queue job sleep
[ 4344.570240] work queue job awake
[ 4344.570244] work queue job sleep
[ 4344.620241] work queue job awake
[ 4344.620245] work queue job sleep
[ 4344.670235] work queue job awake
[ 4344.670239] work queue job sleep
[ 4344.720241] work queue job awake
[ 4344.720247] work queue job sleep
[ 4344.770235] work queue job awake
[ 4344.770238] work queue job sleep
[ 4344.820234] work queue job awake
[ 4344.820238] work queue job sleep
[ 4344.870232] work queue job awake
[ 4344.870235] work queue job sleep
[ 4344.920242] work queue job awake
[ 4344.920247] work queue job sleep
[ 4344.970240] work queue job awake
[ 4344.970244] work queue job sleep
[ 4345.020247] work queue job awake
[ 4345.020252] work queue job sleep
[ 4345.070239] work queue job awake
[ 4345.070242] work queue job sleep
[ 4345.120237] work queue job awake
[ 4345.120242] work queue job sleep
[ 4345.170238] work queue job awake
[ 4345.170241] work queue job sleep
[ 4345.220240] work queue job awake
[ 4345.220243] work queue job sleep
[ 4345.270237] work queue job awake
[ 4345.270242] work queue job sleep
[ 4345.320247] work queue job awake
[ 4345.320251] work queue job sleep
[ 4345.370241] work queue job awake
[ 4345.370247] work queue job sleep
[ 4345.420250] work queue job awake
[ 4345.420256] work queue job sleep
[ 4345.470244] work queue job awake
[ 4345.470249] work queue job sleep
[ 4345.520250] work queue job awake
[ 4345.520256] work queue job sleep
[ 4345.570240] work queue job awake
[ 4345.570244] work queue job sleep
[ 4345.620241] work queue job awake
[ 4345.620245] work queue job sleep
[ 4345.670242] work queue job awake
[ 4345.670246] work queue job sleep
[ 4345.720245] work queue job awake
[ 4345.720251] work queue job sleep
[ 4345.770240] work queue job awake
[ 4345.770243] work queue job sleep
[ 4345.820241] work queue job awake
[ 4345.820244] work queue job sleep
[ 4345.870239] work queue job awake
[ 4345.870243] work queue job sleep
[ 4345.920231] work queue job awake
[ 4345.920236] work queue job sleep
[ 4345.970235] work queue job awake
[ 4345.970241] work queue job sleep
[ 4346.020240] work queue job awake
[ 4346.020244] work queue job sleep
[ 4346.070237] work queue job awake
[ 4346.070241] work queue job sleep
[ 4346.120234] work queue job awake
[ 4346.120237] work queue job sleep
[ 4346.170229] work queue job awake
[ 4346.170233] work queue job sleep
[ 4346.220239] work queue job awake
[ 4346.220243] work queue job sleep
[ 4346.270232] work queue job awake
[ 4346.270235] work queue job sleep
[ 4346.320240] work queue job awake
[ 4346.320243] work queue job sleep
[ 4346.370243] work queue job awake
[ 4346.370246] work queue job sleep
[ 4346.420282] work queue job awake
[ 4346.420287] work queue job sleep
[ 4346.470237] work queue job awake
[ 4346.470241] work queue job sleep
[ 4346.520241] work queue job awake
[ 4346.520246] work queue job sleep
[ 4346.570237] work queue job awake
[ 4346.570241] work queue job sleep
[ 4346.620228] work queue job awake
[ 4346.620232] work queue job sleep
[ 4346.670228] work queue job awake
[ 4346.670231] work queue job sleep
[ 4346.720245] work queue job awake
[ 4346.720251] work queue job sleep
[ 4346.770239] work queue job awake
[ 4346.770242] work queue job sleep
[ 4346.820239] work queue job awake
[ 4346.820242] work queue job sleep
[ 4346.870240] work queue job awake
[ 4346.870243] work queue job sleep
[ 4346.920241] work queue job awake
[ 4346.920244] work queue job sleep
[ 4346.970231] work queue job awake
[ 4346.970236] work queue job sleep
[ 4347.020238] work queue job awake
[ 4347.020241] work queue job sleep
[ 4347.070235] work queue job awake
[ 4347.070239] work queue job sleep
[ 4347.120236] work queue job awake
[ 4347.120239] work queue job sleep
[ 4347.170239] work queue job awake
[ 4347.170243] work queue job sleep
[ 4347.220235] work queue job awake
[ 4347.220239] work queue job sleep
[ 4347.270260] work queue job awake
[ 4347.270264] work queue job sleep
[ 4347.320242] work queue job awake
[ 4347.320245] work queue job sleep
[ 4347.370233] work queue job awake
[ 4347.370237] work queue job sleep
[ 4347.420229] work queue job awake
[ 4347.420234] work queue job sleep
[ 4347.470226] work queue job awake
[ 4347.470230] work queue job sleep
[ 4347.520252] work queue job awake
[ 4347.520259] work queue job sleep
[ 4347.570241] work queue job awake
[ 4347.570244] work queue job sleep
[ 4347.620237] work queue job awake
[ 4347.620241] work queue job sleep
[ 4347.670239] work queue job awake
[ 4347.670244] work queue job sleep
[ 4347.720235] work queue job awake
[ 4347.720238] work queue job sleep
[ 4347.770244] work queue job awake
[ 4347.770249] work queue job sleep
[ 4347.820235] work queue job awake
[ 4347.820239] work queue job sleep
[ 4347.870241] work queue job awake
[ 4347.870245] work queue job sleep
[ 4347.920230] work queue job awake
[ 4347.920233] work queue job sleep
[ 4347.970234] work queue job awake
[ 4347.970243] work queue job sleep
[ 4348.020238] work queue job awake
[ 4348.020243] work queue job sleep
[ 4348.070259] work queue job awake
[ 4348.070267] work queue job sleep
[ 4348.120239] work queue job awake
[ 4348.120245] work queue job sleep
[ 4348.170257] work queue job awake
[ 4348.170265] work queue job sleep
[ 4348.220252] work queue job awake
[ 4348.220258] work queue job sleep
[ 4348.270230] work queue job awake
[ 4348.270235] work queue job sleep
[ 4348.320233] work queue job awake
[ 4348.320238] work queue job sleep
[ 4348.370234] work queue job awake
[ 4348.370238] work queue job sleep
[ 4348.420238] work queue job awake
[ 4348.420243] work queue job sleep
[ 4348.470237] work queue job awake
[ 4348.470243] work queue job sleep
[ 4348.520233] work queue job awake
[ 4348.520239] work queue job sleep
[ 4348.570233] work queue job awake
[ 4348.570238] work queue job sleep
[ 4348.620233] work queue job awake
[ 4348.620239] work queue job sleep
[ 4348.670231] work queue job awake
[ 4348.670236] work queue job sleep
[ 4348.720231] work queue job awake
[ 4348.720236] work queue job sleep
[ 4348.770232] work queue job awake
[ 4348.770238] work queue job sleep
[ 4348.820256] work queue job awake
[ 4348.820260] work queue job sleep
[ 4348.870250] work queue job awake
[ 4348.870255] work queue job sleep
[ 4348.920236] work queue job awake
[ 4348.920242] work queue job sleep
[ 4348.970233] work queue job awake
[ 4348.970238] work queue job sleep
[ 4349.020227] work queue job awake
[ 4349.020233] work queue job sleep
[ 4349.070233] work queue job awake
[ 4349.070239] work queue job sleep
[ 4349.120233] work queue job awake
[ 4349.120238] work queue job sleep
[ 4349.170224] work queue job awake
[ 4349.170230] work queue job sleep
[ 4349.220238] work queue job awake
[ 4349.220244] work queue job sleep
[ 4349.270225] work queue job awake
[ 4349.270229] work queue job sleep
[ 4349.320238] work queue job awake
[ 4349.320243] work queue job sleep
[ 4349.370241] work queue job awake
[ 4349.370248] work queue job sleep
[ 4349.420259] work queue job awake
[ 4349.420266] work queue job sleep
[ 4349.470432] work queue job awake
[ 4349.470439] work queue job sleep
[ 4349.520254] work queue job awake
[ 4349.520260] work queue job sleep
[ 4349.570230] work queue job awake
[ 4349.570235] work queue job sleep
[ 4349.620231] work queue job awake
[ 4349.620235] work queue job sleep
[ 4349.670251] work queue job awake
[ 4349.670257] work queue job sleep
[ 4349.720231] work queue job awake
[ 4349.720237] work queue job sleep
[ 4349.770238] work queue job awake
[ 4349.770243] work queue job sleep
[ 4349.820224] work queue job awake
[ 4349.820229] work queue job sleep
[ 4349.870227] work queue job awake
[ 4349.870231] work queue job sleep
[ 4349.920237] work queue job awake
[ 4349.920240] work queue job sleep
[ 4349.970219] work queue job awake
[ 4349.970223] work queue job sleep
[ 4350.020222] work queue job awake
[ 4350.020228] work queue job sleep
[ 4350.070227] work queue job awake
[ 4350.070231] work queue job sleep
[ 4350.120243] work queue job awake
[ 4350.120247] work queue job sleep
[ 4350.170227] work queue job awake
[ 4350.170231] work queue job sleep
[ 4350.220229] work queue job awake
[ 4350.220232] work queue job sleep
[ 4350.270221] work queue job awake
[ 4350.270224] work queue job sleep
[ 4350.320228] work queue job awake
[ 4350.320232] work queue job sleep
[ 4350.370216] work queue job awake
[ 4350.370219] work queue job sleep
[ 4350.420238] work queue job awake
[ 4350.420242] work queue job sleep
[ 4350.470228] work queue job awake
[ 4350.470233] work queue job sleep
[ 4350.520240] work queue job awake
[ 4350.520246] work queue job sleep
[ 4350.570226] work queue job awake
[ 4350.570230] work queue job sleep
[ 4350.620237] work queue job awake
[ 4350.620244] work queue job sleep
[ 4350.670236] work queue job awake
[ 4350.670242] work queue job sleep
[ 4350.720249] work queue job awake
[ 4350.720256] work queue job sleep
[ 4350.770236] work queue job awake
[ 4350.770242] work queue job sleep
[ 4350.820330] work queue job awake
[ 4350.820337] work queue job sleep
[ 4350.870237] work queue job awake
[ 4350.870242] work queue job sleep
[ 4350.920287] work queue job awake
[ 4350.920293] work queue job sleep
[ 4350.970242] work queue job awake
[ 4350.970248] work queue job sleep
[ 4351.020246] work queue job awake
[ 4351.020253] work queue job sleep
[ 4351.070226] work queue job awake
[ 4351.070232] work queue job sleep
[ 4351.120235] work queue job awake
[ 4351.120240] work queue job sleep
[ 4351.170223] work queue job awake
[ 4351.170227] work queue job sleep
[ 4351.220236] work queue job awake
[ 4351.220242] work queue job sleep
[ 4351.270221] work queue job awake
[ 4351.270228] work queue job sleep
[ 4351.320257] work queue job awake
[ 4351.320264] work queue job sleep
[ 4351.370225] work queue job awake
[ 4351.370231] work queue job sleep
[ 4351.420233] work queue job awake
[ 4351.420240] work queue job sleep
[ 4351.470254] work queue job awake
[ 4351.470261] work queue job sleep
[ 4351.520273] work queue job awake
[ 4351.520280] work queue job sleep
[ 4351.570225] work queue job awake
[ 4351.570232] work queue job sleep
[ 4351.620235] work queue job awake
[ 4351.620241] work queue job sleep
[ 4351.670219] work queue job awake
[ 4351.670226] work queue job sleep
[ 4351.720243] work queue job awake
[ 4351.720248] work queue job sleep
[ 4351.770232] work queue job awake
[ 4351.770238] work queue job sleep
[ 4351.820244] work queue job awake
[ 4351.820250] work queue job sleep
[ 4351.870234] work queue job awake
[ 4351.870240] work queue job sleep
[ 4351.920230] work queue job awake
[ 4351.920235] work queue job sleep
[ 4351.970231] work queue job awake
[ 4351.970236] work queue job sleep
[ 4352.020260] work queue job awake
[ 4352.020266] work queue job sleep
[ 4352.070229] work queue job awake
[ 4352.070234] work queue job sleep
[ 4352.120338] work queue job awake
[ 4352.120344] work queue job sleep
[ 4352.170227] work queue job awake
[ 4352.170232] work queue job sleep
[ 4352.220227] work queue job awake
[ 4352.220233] work queue job sleep
[ 4352.270217] work queue job awake
[ 4352.270222] work queue job sleep
[ 4352.320229] work queue job awake
[ 4352.320234] work queue job sleep
[ 4352.370224] work queue job awake
[ 4352.370228] work queue job sleep
[ 4352.420222] work queue job awake
[ 4352.420227] work queue job sleep
[ 4352.470231] work queue job awake
[ 4352.470236] work queue job sleep
[ 4352.520231] work queue job awake
[ 4352.520237] work queue job sleep
[ 4352.570220] work queue job awake
[ 4352.570224] work queue job sleep
[ 4352.620221] work queue job awake
[ 4352.620226] work queue job sleep
[ 4352.670219] work queue job awake
[ 4352.670223] work queue job sleep
[ 4352.720228] work queue job awake
[ 4352.720232] work queue job sleep
[ 4352.770229] work queue job awake
[ 4352.770233] work queue job sleep
[ 4352.820219] work queue job awake
[ 4352.820225] work queue job sleep
[ 4352.870211] work queue job awake
[ 4352.870214] work queue job sleep
[ 4352.920233] work queue job awake
[ 4352.920237] work queue job sleep
[ 4352.970226] work queue job awake
[ 4352.970230] work queue job sleep
[ 4353.020232] work queue job awake
[ 4353.020237] work queue job sleep
[ 4353.070233] work queue job awake
[ 4353.070239] work queue job sleep
[ 4353.120220] work queue job awake
[ 4353.120224] work queue job sleep
[ 4353.170220] work queue job awake
[ 4353.170224] work queue job sleep
[ 4353.220219] work queue job awake
[ 4353.220224] work queue job sleep
[ 4353.270213] work queue job awake
[ 4353.270217] work queue job sleep
[ 4353.320234] work queue job awake
[ 4353.320239] work queue job sleep
[ 4353.370222] work queue job awake
[ 4353.370227] work queue job sleep
[ 4353.420227] work queue job awake
[ 4353.420233] work queue job sleep
[ 4353.470220] work queue job awake
[ 4353.470224] work queue job sleep
[ 4353.520221] work queue job awake
[ 4353.520228] work queue job sleep
[ 4353.570224] work queue job awake
[ 4353.570228] work queue job sleep
[ 4353.620217] work queue job awake
[ 4353.620222] work queue job sleep
[ 4353.670226] work queue job awake
[ 4353.670231] work queue job sleep
[ 4353.720224] work queue job awake
[ 4353.720229] work queue job sleep
[ 4353.770218] work queue job awake
[ 4353.770224] work queue job sleep
[ 4353.820228] work queue job awake
[ 4353.820236] work queue job sleep
[ 4353.870232] work queue job awake
[ 4353.870237] work queue job sleep
[ 4353.920228] work queue job awake
[ 4353.920234] work queue job sleep
[ 4353.970241] work queue job awake
[ 4353.970248] work queue job sleep
[ 4354.020229] work queue job awake
[ 4354.020235] work queue job sleep
[ 4354.070206] work queue job awake
[ 4354.070212] work queue job sleep
[ 4354.120222] work queue job awake
[ 4354.120228] work queue job sleep
[ 4354.170243] work queue job awake
[ 4354.170250] work queue job sleep
[ 4354.220216] work queue job awake
[ 4354.220222] work queue job sleep
[ 4354.270210] work queue job awake
[ 4354.270214] work queue job sleep
[ 4354.320221] work queue job awake
[ 4354.320226] work queue job sleep
[ 4354.370224] work queue job awake
[ 4354.370229] work queue job sleep
[ 4354.420227] work queue job awake
[ 4354.420234] work queue job sleep
[ 4354.470220] work queue job awake
[ 4354.470225] work queue job sleep
[ 4354.520219] work queue job awake
[ 4354.520225] work queue job sleep
[ 4354.570217] work queue job awake
[ 4354.570222] work queue job sleep
[ 4354.620218] work queue job awake
[ 4354.620224] work queue job sleep
[ 4354.670238] work queue job awake
[ 4354.670244] work queue job sleep
[ 4354.720213] work queue job awake
[ 4354.720217] work queue job sleep
[ 4354.770216] work queue job awake
[ 4354.770220] work queue job sleep
[ 4354.820221] work queue job awake
[ 4354.820226] work queue job sleep
[ 4354.870222] work queue job awake
[ 4354.870225] work queue job sleep
[ 4354.920213] work queue job awake
[ 4354.920217] work queue job sleep
[ 4354.970212] work queue job awake
[ 4354.970216] work queue job sleep
[ 4355.020212] work queue job awake
[ 4355.020216] work queue job sleep
[ 4355.070220] work queue job awake
[ 4355.070223] work queue job sleep
[ 4355.120213] work queue job awake
[ 4355.120218] work queue job sleep
[ 4355.170213] work queue job awake
[ 4355.170216] work queue job sleep
[ 4355.220215] work queue job awake
[ 4355.220218] work queue job sleep
[ 4355.270208] work queue job awake
[ 4355.270212] work queue job sleep
[ 4355.320212] work queue job awake
[ 4355.320215] work queue job sleep
[ 4355.370209] work queue job awake
[ 4355.370213] work queue job sleep
[ 4355.420213] work queue job awake
[ 4355.420217] work queue job sleep
[ 4355.470214] work queue job awake
[ 4355.470217] work queue job sleep
[ 4355.520212] work queue job awake
[ 4355.520218] work queue job sleep
[ 4355.570202] work queue job awake
[ 4355.570205] work queue job sleep
[ 4355.620209] work queue job awake
[ 4355.620213] work queue job sleep
[ 4355.670214] work queue job awake
[ 4355.670218] work queue job sleep
[ 4355.720213] work queue job awake
[ 4355.720216] work queue job sleep
[ 4355.770218] work queue job awake
[ 4355.770222] work queue job sleep
[ 4355.820211] work queue job awake
[ 4355.820215] work queue job sleep
[ 4355.870217] work queue job awake
[ 4355.870223] work queue job sleep
[ 4355.920211] work queue job awake
[ 4355.920214] work queue job sleep
[ 4355.970212] work queue job awake
[ 4355.970215] work queue job sleep
[ 4356.020222] work queue job awake
[ 4356.020226] work queue job sleep
[ 4356.070211] work queue job awake
[ 4356.070214] work queue job sleep
[ 4356.120212] work queue job awake
[ 4356.120217] work queue job sleep
[ 4356.170220] work queue job awake
[ 4356.170224] work queue job sleep
[ 4356.220212] work queue job awake
[ 4356.220216] work queue job sleep
[ 4356.270205] work queue job awake
[ 4356.270209] work queue job sleep
[ 4356.320209] work queue job awake
[ 4356.320213] work queue job sleep
[ 4356.370212] work queue job awake
[ 4356.370215] work queue job sleep
[ 4356.420213] work queue job awake
[ 4356.420218] work queue job sleep
[ 4356.470211] work queue job awake
[ 4356.470215] work queue job sleep
[ 4356.520219] work queue job awake
[ 4356.520225] work queue job sleep
[ 4356.570206] work queue job awake
[ 4356.570209] work queue job sleep
[ 4356.620209] work queue job awake
[ 4356.620212] work queue job sleep
[ 4356.670208] work queue job awake
[ 4356.670211] work queue job sleep
[ 4356.720208] work queue job awake
[ 4356.720212] work queue job sleep
[ 4356.770207] work queue job awake
[ 4356.770211] work queue job sleep
[ 4356.820206] work queue job awake
[ 4356.820210] work queue job sleep
[ 4356.870207] work queue job awake
[ 4356.870212] work queue job sleep
[ 4356.920207] work queue job awake
[ 4356.920211] work queue job sleep
[ 4356.970212] work queue job awake
[ 4356.970215] work queue job sleep
[ 4357.020206] work queue job awake
[ 4357.020210] work queue job sleep
[ 4357.070208] work queue job awake
[ 4357.070212] work queue job sleep
[ 4357.120209] work queue job awake
[ 4357.120214] work queue job sleep
[ 4357.170207] work queue job awake
[ 4357.170210] work queue job sleep
[ 4357.220202] work queue job awake
[ 4357.220205] work queue job sleep
[ 4357.270203] work queue job awake
[ 4357.270206] work queue job sleep
[ 4357.320199] work queue job awake
[ 4357.320202] work queue job sleep
[ 4357.370211] work queue job awake
[ 4357.370214] work queue job sleep
[ 4357.420204] work queue job awake
[ 4357.420208] work queue job sleep
[ 4357.470201] work queue job awake
[ 4357.470204] work queue job sleep
[ 4357.520208] work queue job awake
[ 4357.520214] work queue job sleep
[ 4357.570205] work queue job awake
[ 4357.570208] work queue job sleep
[ 4357.620222] work queue job awake
[ 4357.620229] work queue job sleep
[ 4357.670214] work queue job awake
[ 4357.670219] work queue job sleep
[ 4357.720214] work queue job awake
[ 4357.720221] work queue job sleep
[ 4357.770209] work queue job awake
[ 4357.770216] work queue job sleep
[ 4357.820370] work queue job awake
[ 4357.820374] work queue job sleep
[ 4357.870209] work queue job awake
[ 4357.870214] work queue job sleep
[ 4357.920201] work queue job awake
[ 4357.920204] work queue job sleep
[ 4357.970205] work queue job awake
[ 4357.970209] work queue job sleep
[ 4358.020200] work queue job awake
[ 4358.020204] work queue job sleep
[ 4358.070202] work queue job awake
[ 4358.070207] work queue job sleep
[ 4358.120200] work queue job awake
[ 4358.120205] work queue job sleep
[ 4358.170199] work queue job awake
[ 4358.170202] work queue job sleep
[ 4358.220208] work queue job awake
[ 4358.220212] work queue job sleep
[ 4358.270199] work queue job awake
[ 4358.270203] work queue job sleep
[ 4358.320205] work queue job awake
[ 4358.320209] work queue job sleep
[ 4358.370207] work queue job awake
[ 4358.370211] work queue job sleep
[ 4358.420215] work queue job awake
[ 4358.420220] work queue job sleep
[ 4358.470206] work queue job awake
[ 4358.470210] work queue job sleep
[ 4358.520212] work queue job awake
[ 4358.520219] work queue job sleep
[ 4358.570207] work queue job awake
[ 4358.570211] work queue job sleep
[ 4358.620206] work queue job awake
[ 4358.620210] work queue job sleep
[ 4358.670204] work queue job awake
[ 4358.670207] work queue job sleep
[ 4358.720205] work queue job awake
[ 4358.720209] work queue job sleep
[ 4358.770208] work queue job awake
[ 4358.770213] work queue job sleep
[ 4358.820203] work queue job awake
[ 4358.820207] work queue job sleep
[ 4358.870208] work queue job awake
[ 4358.870213] work queue job sleep
[ 4358.920204] work queue job awake
[ 4358.920208] work queue job sleep
[ 4358.970204] work queue job awake
[ 4358.970208] work queue job sleep
[ 4359.020203] work queue job awake
[ 4359.020207] work queue job sleep
[ 4359.070204] work queue job awake
[ 4359.070209] work queue job sleep
[ 4359.120199] work queue job awake
[ 4359.120205] work queue job sleep
[ 4359.170200] work queue job awake
[ 4359.170205] work queue job sleep
[ 4359.220198] work queue job awake
[ 4359.220203] work queue job sleep
[ 4359.270197] work queue job awake
[ 4359.270201] work queue job sleep
[ 4359.320202] work queue job awake
[ 4359.320207] work queue job sleep
[ 4359.370202] work queue job awake
[ 4359.370208] work queue job sleep
[ 4359.420195] work queue job awake
[ 4359.420201] work queue job sleep
[ 4359.470194] work queue job awake
[ 4359.470200] work queue job sleep
[ 4359.520199] work queue job awake
[ 4359.520205] work queue job sleep
[ 4359.570206] work queue job awake
[ 4359.570210] work queue job sleep
[ 4359.620210] work queue job awake
[ 4359.620215] work queue job sleep
[ 4359.670214] work queue job awake
[ 4359.670221] work queue job sleep
[ 4359.720212] work queue job awake
[ 4359.720218] work queue job sleep
[ 4359.770211] work queue job awake
[ 4359.770217] work queue job sleep
[ 4359.820226] work queue job awake
[ 4359.820233] work queue job sleep
[ 4359.870206] work queue job awake
[ 4359.870211] work queue job sleep
[ 4359.892727] task 9453 is leaving
[ 4359.892730] we find you!
[ 4359.892731] task 9453 de-registered!
[ 4359.920196] work queue job awake
[ 4359.920199] work queue job sleep
[ 4359.970202] work queue job awake
[ 4359.970205] work queue job sleep
[ 4360.020201] work queue job awake
[ 4360.020204] work queue job sleep
[ 4360.070202] work queue job awake
[ 4360.070206] work queue job sleep
[ 4360.120218] work queue job awake
[ 4360.120221] work queue job sleep
[ 4360.170213] work queue job awake
[ 4360.170218] work queue job sleep
[ 4360.181137] task 9452 is leaving
[ 4360.181139] we find you!
[ 4360.181171] task 9452 de-registered!
[ 4393.763622] cdev opened
[ 4393.763652] dev op finished
[ 4393.764008] cdev closed
[ 4397.469664] task 9461 arrived
[ 4397.469702] work queue job created
[ 4397.469704] task 9461 registered!
[ 4397.469717] task 9462 arrived
[ 4397.469719] task 9462 registered!
[ 4397.519714] work queue job awake
[ 4397.519720] work queue job sleep
[ 4397.569720] work queue job awake
[ 4397.569726] work queue job sleep
[ 4397.619724] work queue job awake
[ 4397.619727] work queue job sleep
[ 4397.669727] work queue job awake
[ 4397.669730] work queue job sleep
[ 4397.719721] work queue job awake
[ 4397.719725] work queue job sleep
[ 4397.769724] work queue job awake
[ 4397.769727] work queue job sleep
[ 4397.819722] work queue job awake
[ 4397.819725] work queue job sleep
[ 4397.869721] work queue job awake
[ 4397.869724] work queue job sleep
[ 4397.919717] work queue job awake
[ 4397.919720] work queue job sleep
[ 4397.969719] work queue job awake
[ 4397.969722] work queue job sleep
[ 4398.019717] work queue job awake
[ 4398.019721] work queue job sleep
[ 4398.069736] work queue job awake
[ 4398.069740] work queue job sleep
[ 4398.119724] work queue job awake
[ 4398.119728] work queue job sleep
[ 4398.169734] work queue job awake
[ 4398.169737] work queue job sleep
[ 4398.219726] work queue job awake
[ 4398.219730] work queue job sleep
[ 4398.269721] work queue job awake
[ 4398.269725] work queue job sleep
[ 4398.319723] work queue job awake
[ 4398.319726] work queue job sleep
[ 4398.369721] work queue job awake
[ 4398.369723] work queue job sleep
[ 4398.419725] work queue job awake
[ 4398.419729] work queue job sleep
[ 4398.469722] work queue job awake
[ 4398.469725] work queue job sleep
[ 4398.519729] work queue job awake
[ 4398.519735] work queue job sleep
[ 4398.569712] work queue job awake
[ 4398.569718] work queue job sleep
[ 4398.619732] work queue job awake
[ 4398.619738] work queue job sleep
[ 4398.669726] work queue job awake
[ 4398.669730] work queue job sleep
[ 4398.719721] work queue job awake
[ 4398.719725] work queue job sleep
[ 4398.769734] work queue job awake
[ 4398.769737] work queue job sleep
[ 4398.819720] work queue job awake
[ 4398.819723] work queue job sleep
[ 4398.869727] work queue job awake
[ 4398.869730] work queue job sleep
[ 4398.919720] work queue job awake
[ 4398.919723] work queue job sleep
[ 4398.969720] work queue job awake
[ 4398.969723] work queue job sleep
[ 4399.019726] work queue job awake
[ 4399.019730] work queue job sleep
[ 4399.069716] work queue job awake
[ 4399.069720] work queue job sleep
[ 4399.119718] work queue job awake
[ 4399.119722] work queue job sleep
[ 4399.169716] work queue job awake
[ 4399.169720] work queue job sleep
[ 4399.219718] work queue job awake
[ 4399.219722] work queue job sleep
[ 4399.269715] work queue job awake
[ 4399.269718] work queue job sleep
[ 4399.319718] work queue job awake
[ 4399.319721] work queue job sleep
[ 4399.369710] work queue job awake
[ 4399.369714] work queue job sleep
[ 4399.419725] work queue job awake
[ 4399.419729] work queue job sleep
[ 4399.469721] work queue job awake
[ 4399.469724] work queue job sleep
[ 4399.519746] work queue job awake
[ 4399.519752] work queue job sleep
[ 4399.569718] work queue job awake
[ 4399.569722] work queue job sleep
[ 4399.619714] work queue job awake
[ 4399.619720] work queue job sleep
[ 4399.669715] work queue job awake
[ 4399.669720] work queue job sleep
[ 4399.719716] work queue job awake
[ 4399.719719] work queue job sleep
[ 4399.769718] work queue job awake
[ 4399.769721] work queue job sleep
[ 4399.819714] work queue job awake
[ 4399.819717] work queue job sleep
[ 4399.869719] work queue job awake
[ 4399.869722] work queue job sleep
[ 4399.919716] work queue job awake
[ 4399.919719] work queue job sleep
[ 4399.969717] work queue job awake
[ 4399.969720] work queue job sleep
[ 4400.019717] work queue job awake
[ 4400.019720] work queue job sleep
[ 4400.069727] work queue job awake
[ 4400.069730] work queue job sleep
[ 4400.119716] work queue job awake
[ 4400.119719] work queue job sleep
[ 4400.169712] work queue job awake
[ 4400.169715] work queue job sleep
[ 4400.219716] work queue job awake
[ 4400.219720] work queue job sleep
[ 4400.269710] work queue job awake
[ 4400.269713] work queue job sleep
[ 4400.319716] work queue job awake
[ 4400.319719] work queue job sleep
[ 4400.369714] work queue job awake
[ 4400.369717] work queue job sleep
[ 4400.419717] work queue job awake
[ 4400.419722] work queue job sleep
[ 4400.469712] work queue job awake
[ 4400.469715] work queue job sleep
[ 4400.519711] work queue job awake
[ 4400.519718] work queue job sleep
[ 4400.569709] work queue job awake
[ 4400.569712] work queue job sleep
[ 4400.619707] work queue job awake
[ 4400.619710] work queue job sleep
[ 4400.669705] work queue job awake
[ 4400.669711] work queue job sleep
[ 4400.719719] work queue job awake
[ 4400.719724] work queue job sleep
[ 4400.769719] work queue job awake
[ 4400.769723] work queue job sleep
[ 4400.819718] work queue job awake
[ 4400.819721] work queue job sleep
[ 4400.869719] work queue job awake
[ 4400.869723] work queue job sleep
[ 4400.919716] work queue job awake
[ 4400.919719] work queue job sleep
[ 4400.969719] work queue job awake
[ 4400.969723] work queue job sleep
[ 4401.019720] work queue job awake
[ 4401.019723] work queue job sleep
[ 4401.069729] work queue job awake
[ 4401.069732] work queue job sleep
[ 4401.119715] work queue job awake
[ 4401.119718] work queue job sleep
[ 4401.169715] work queue job awake
[ 4401.169718] work queue job sleep
[ 4401.219718] work queue job awake
[ 4401.219722] work queue job sleep
[ 4401.269714] work queue job awake
[ 4401.269717] work queue job sleep
[ 4401.319714] work queue job awake
[ 4401.319717] work queue job sleep
[ 4401.369714] work queue job awake
[ 4401.369717] work queue job sleep
[ 4401.419724] work queue job awake
[ 4401.419728] work queue job sleep
[ 4401.469713] work queue job awake
[ 4401.469717] work queue job sleep
[ 4401.519715] work queue job awake
[ 4401.519720] work queue job sleep
[ 4401.569712] work queue job awake
[ 4401.569716] work queue job sleep
[ 4401.619716] work queue job awake
[ 4401.619720] work queue job sleep
[ 4401.669710] work queue job awake
[ 4401.669713] work queue job sleep
[ 4401.719717] work queue job awake
[ 4401.719722] work queue job sleep
[ 4401.769710] work queue job awake
[ 4401.769713] work queue job sleep
[ 4401.819712] work queue job awake
[ 4401.819715] work queue job sleep
[ 4401.869709] work queue job awake
[ 4401.869712] work queue job sleep
[ 4401.919710] work queue job awake
[ 4401.919713] work queue job sleep
[ 4401.969711] work queue job awake
[ 4401.969714] work queue job sleep
[ 4402.019713] work queue job awake
[ 4402.019717] work queue job sleep
[ 4402.069712] work queue job awake
[ 4402.069715] work queue job sleep
[ 4402.119713] work queue job awake
[ 4402.119717] work queue job sleep
[ 4402.169715] work queue job awake
[ 4402.169718] work queue job sleep
[ 4402.219725] work queue job awake
[ 4402.219729] work queue job sleep
[ 4402.269712] work queue job awake
[ 4402.269716] work queue job sleep
[ 4402.319710] work queue job awake
[ 4402.319714] work queue job sleep
[ 4402.369712] work queue job awake
[ 4402.369715] work queue job sleep
[ 4402.419711] work queue job awake
[ 4402.419715] work queue job sleep
[ 4402.469711] work queue job awake
[ 4402.469714] work queue job sleep
[ 4402.519716] work queue job awake
[ 4402.519722] work queue job sleep
[ 4402.569710] work queue job awake
[ 4402.569713] work queue job sleep
[ 4402.619710] work queue job awake
[ 4402.619714] work queue job sleep
[ 4402.669709] work queue job awake
[ 4402.669712] work queue job sleep
[ 4402.719701] work queue job awake
[ 4402.719705] work queue job sleep
[ 4402.769713] work queue job awake
[ 4402.769719] work queue job sleep
[ 4402.819710] work queue job awake
[ 4402.819714] work queue job sleep
[ 4402.869710] work queue job awake
[ 4402.869713] work queue job sleep
[ 4402.919724] work queue job awake
[ 4402.919727] work queue job sleep
[ 4402.969712] work queue job awake
[ 4402.969715] work queue job sleep
[ 4403.019709] work queue job awake
[ 4403.019713] work queue job sleep
[ 4403.069707] work queue job awake
[ 4403.069711] work queue job sleep
[ 4403.119717] work queue job awake
[ 4403.119720] work queue job sleep
[ 4403.169707] work queue job awake
[ 4403.169710] work queue job sleep
[ 4403.219705] work queue job awake
[ 4403.219709] work queue job sleep
[ 4403.269704] work queue job awake
[ 4403.269708] work queue job sleep
[ 4403.319717] work queue job awake
[ 4403.319720] work queue job sleep
[ 4403.369709] work queue job awake
[ 4403.369712] work queue job sleep
[ 4403.419712] work queue job awake
[ 4403.419717] work queue job sleep
[ 4403.469709] work queue job awake
[ 4403.469713] work queue job sleep
[ 4403.519714] work queue job awake
[ 4403.519719] work queue job sleep
[ 4403.569710] work queue job awake
[ 4403.569713] work queue job sleep
[ 4403.619710] work queue job awake
[ 4403.619715] work queue job sleep
[ 4403.669708] work queue job awake
[ 4403.669711] work queue job sleep
[ 4403.719705] work queue job awake
[ 4403.719708] work queue job sleep
[ 4403.769715] work queue job awake
[ 4403.769721] work queue job sleep
[ 4403.819707] work queue job awake
[ 4403.819710] work queue job sleep
[ 4403.869707] work queue job awake
[ 4403.869710] work queue job sleep
[ 4403.919707] work queue job awake
[ 4403.919711] work queue job sleep
[ 4403.969706] work queue job awake
[ 4403.969710] work queue job sleep
[ 4404.019708] work queue job awake
[ 4404.019711] work queue job sleep
[ 4404.069709] work queue job awake
[ 4404.069712] work queue job sleep
[ 4404.119704] work queue job awake
[ 4404.119707] work queue job sleep
[ 4404.169709] work queue job awake
[ 4404.169713] work queue job sleep
[ 4404.219705] work queue job awake
[ 4404.219708] work queue job sleep
[ 4404.269705] work queue job awake
[ 4404.269708] work queue job sleep
[ 4404.319714] work queue job awake
[ 4404.319718] work queue job sleep
[ 4404.369702] work queue job awake
[ 4404.369705] work queue job sleep
[ 4404.419705] work queue job awake
[ 4404.419709] work queue job sleep
[ 4404.469703] work queue job awake
[ 4404.469706] work queue job sleep
[ 4404.519705] work queue job awake
[ 4404.519710] work queue job sleep
[ 4404.569695] work queue job awake
[ 4404.569698] work queue job sleep
[ 4404.619708] work queue job awake
[ 4404.619711] work queue job sleep
[ 4404.669705] work queue job awake
[ 4404.669708] work queue job sleep
[ 4404.719705] work queue job awake
[ 4404.719708] work queue job sleep
[ 4404.769692] work queue job awake
[ 4404.769696] work queue job sleep
[ 4404.819708] work queue job awake
[ 4404.819714] work queue job sleep
[ 4404.869705] work queue job awake
[ 4404.869708] work queue job sleep
[ 4404.919706] work queue job awake
[ 4404.919710] work queue job sleep
[ 4404.969705] work queue job awake
[ 4404.969708] work queue job sleep
[ 4405.019704] work queue job awake
[ 4405.019708] work queue job sleep
[ 4405.069703] work queue job awake
[ 4405.069706] work queue job sleep
[ 4405.119704] work queue job awake
[ 4405.119707] work queue job sleep
[ 4405.169704] work queue job awake
[ 4405.169707] work queue job sleep
[ 4405.219704] work queue job awake
[ 4405.219707] work queue job sleep
[ 4405.269703] work queue job awake
[ 4405.269706] work queue job sleep
[ 4405.319704] work queue job awake
[ 4405.319708] work queue job sleep
[ 4405.369701] work queue job awake
[ 4405.369704] work queue job sleep
[ 4405.419704] work queue job awake
[ 4405.419707] work queue job sleep
[ 4405.469702] work queue job awake
[ 4405.469705] work queue job sleep
[ 4405.519703] work queue job awake
[ 4405.519709] work queue job sleep
[ 4405.569704] work queue job awake
[ 4405.569709] work queue job sleep
[ 4405.619708] work queue job awake
[ 4405.619714] work queue job sleep
[ 4405.669701] work queue job awake
[ 4405.669706] work queue job sleep
[ 4405.719710] work queue job awake
[ 4405.719714] work queue job sleep
[ 4405.769701] work queue job awake
[ 4405.769705] work queue job sleep
[ 4405.819694] work queue job awake
[ 4405.819700] work queue job sleep
[ 4405.869690] work queue job awake
[ 4405.869693] work queue job sleep
[ 4405.919702] work queue job awake
[ 4405.919705] work queue job sleep
[ 4405.969703] work queue job awake
[ 4405.969705] work queue job sleep
[ 4406.019704] work queue job awake
[ 4406.019708] work queue job sleep
[ 4406.069702] work queue job awake
[ 4406.069705] work queue job sleep
[ 4406.119701] work queue job awake
[ 4406.119705] work queue job sleep
[ 4406.169701] work queue job awake
[ 4406.169705] work queue job sleep
[ 4406.219700] work queue job awake
[ 4406.219704] work queue job sleep
[ 4406.269699] work queue job awake
[ 4406.269702] work queue job sleep
[ 4406.319699] work queue job awake
[ 4406.319702] work queue job sleep
[ 4406.369712] work queue job awake
[ 4406.369716] work queue job sleep
[ 4406.419707] work queue job awake
[ 4406.419713] work queue job sleep
[ 4406.469711] work queue job awake
[ 4406.469714] work queue job sleep
[ 4406.519700] work queue job awake
[ 4406.519706] work queue job sleep
[ 4406.569699] work queue job awake
[ 4406.569702] work queue job sleep
[ 4406.619698] work queue job awake
[ 4406.619702] work queue job sleep
[ 4406.669697] work queue job awake
[ 4406.669700] work queue job sleep
[ 4406.719699] work queue job awake
[ 4406.719703] work queue job sleep
[ 4406.769698] work queue job awake
[ 4406.769701] work queue job sleep
[ 4406.819691] work queue job awake
[ 4406.819697] work queue job sleep
[ 4406.869698] work queue job awake
[ 4406.869702] work queue job sleep
[ 4406.919697] work queue job awake
[ 4406.919701] work queue job sleep
[ 4406.969695] work queue job awake
[ 4406.969698] work queue job sleep
[ 4407.019717] work queue job awake
[ 4407.019721] work queue job sleep
[ 4407.069702] work queue job awake
[ 4407.069705] work queue job sleep
[ 4407.119706] work queue job awake
[ 4407.119710] work queue job sleep
[ 4407.169693] work queue job awake
[ 4407.169697] work queue job sleep
[ 4407.219699] work queue job awake
[ 4407.219702] work queue job sleep
[ 4407.269698] work queue job awake
[ 4407.269702] work queue job sleep
[ 4407.319699] work queue job awake
[ 4407.319703] work queue job sleep
[ 4407.369699] work queue job awake
[ 4407.369702] work queue job sleep
[ 4407.419700] work queue job awake
[ 4407.419704] work queue job sleep
[ 4407.469708] work queue job awake
[ 4407.469712] work queue job sleep
[ 4407.519695] work queue job awake
[ 4407.519700] work queue job sleep
[ 4407.569693] work queue job awake
[ 4407.569696] work queue job sleep
[ 4407.619697] work queue job awake
[ 4407.619701] work queue job sleep
[ 4407.669697] work queue job awake
[ 4407.669700] work queue job sleep
[ 4407.719691] work queue job awake
[ 4407.719695] work queue job sleep
[ 4407.769695] work queue job awake
[ 4407.769698] work queue job sleep
[ 4407.819698] work queue job awake
[ 4407.819702] work queue job sleep
[ 4407.869696] work queue job awake
[ 4407.869701] work queue job sleep
[ 4407.919694] work queue job awake
[ 4407.919697] work queue job sleep
[ 4407.969695] work queue job awake
[ 4407.969699] work queue job sleep
[ 4408.019695] work queue job awake
[ 4408.019699] work queue job sleep
[ 4408.069702] work queue job awake
[ 4408.069705] work queue job sleep
[ 4408.119702] work queue job awake
[ 4408.119706] work queue job sleep
[ 4408.169693] work queue job awake
[ 4408.169697] work queue job sleep
[ 4408.219718] work queue job awake
[ 4408.219722] work queue job sleep
[ 4408.269693] work queue job awake
[ 4408.269696] work queue job sleep
[ 4408.319691] work queue job awake
[ 4408.319695] work queue job sleep
[ 4408.369702] work queue job awake
[ 4408.369705] work queue job sleep
[ 4408.419692] work queue job awake
[ 4408.419696] work queue job sleep
[ 4408.469686] work queue job awake
[ 4408.469689] work queue job sleep
[ 4408.519693] work queue job awake
[ 4408.519699] work queue job sleep
[ 4408.569691] work queue job awake
[ 4408.569695] work queue job sleep
[ 4408.619693] work queue job awake
[ 4408.619697] work queue job sleep
[ 4408.669699] work queue job awake
[ 4408.669702] work queue job sleep
[ 4408.719691] work queue job awake
[ 4408.719695] work queue job sleep
[ 4408.769694] work queue job awake
[ 4408.769697] work queue job sleep
[ 4408.819695] work queue job awake
[ 4408.819699] work queue job sleep
[ 4408.869692] work queue job awake
[ 4408.869698] work queue job sleep
[ 4408.919693] work queue job awake
[ 4408.919697] work queue job sleep
[ 4408.969695] work queue job awake
[ 4408.969698] work queue job sleep
[ 4409.019693] work queue job awake
[ 4409.019696] work queue job sleep
[ 4409.069692] work queue job awake
[ 4409.069695] work queue job sleep
[ 4409.119693] work queue job awake
[ 4409.119696] work queue job sleep
[ 4409.169692] work queue job awake
[ 4409.169695] work queue job sleep
[ 4409.219693] work queue job awake
[ 4409.219696] work queue job sleep
[ 4409.269692] work queue job awake
[ 4409.269695] work queue job sleep
[ 4409.319691] work queue job awake
[ 4409.319694] work queue job sleep
[ 4409.369691] work queue job awake
[ 4409.369694] work queue job sleep
[ 4409.419693] work queue job awake
[ 4409.419698] work queue job sleep
[ 4409.469690] work queue job awake
[ 4409.469693] work queue job sleep
[ 4409.519689] work queue job awake
[ 4409.519694] work queue job sleep
[ 4409.569691] work queue job awake
[ 4409.569694] work queue job sleep
[ 4409.619691] work queue job awake
[ 4409.619697] work queue job sleep
[ 4409.669684] work queue job awake
[ 4409.669688] work queue job sleep
[ 4409.719689] work queue job awake
[ 4409.719694] work queue job sleep
[ 4409.769683] work queue job awake
[ 4409.769686] work queue job sleep
[ 4409.819690] work queue job awake
[ 4409.819693] work queue job sleep
[ 4409.869692] work queue job awake
[ 4409.869697] work queue job sleep
[ 4409.919692] work queue job awake
[ 4409.919695] work queue job sleep
[ 4409.969704] work queue job awake
[ 4409.969710] work queue job sleep
[ 4410.019696] work queue job awake
[ 4410.019701] work queue job sleep
[ 4410.069690] work queue job awake
[ 4410.069694] work queue job sleep
[ 4410.119693] work queue job awake
[ 4410.119698] work queue job sleep
[ 4410.169691] work queue job awake
[ 4410.169694] work queue job sleep
[ 4410.219689] work queue job awake
[ 4410.219692] work queue job sleep
[ 4410.269687] work queue job awake
[ 4410.269690] work queue job sleep
[ 4410.319688] work queue job awake
[ 4410.319691] work queue job sleep
[ 4410.369689] work queue job awake
[ 4410.369692] work queue job sleep
[ 4410.419691] work queue job awake
[ 4410.419696] work queue job sleep
[ 4410.469688] work queue job awake
[ 4410.469692] work queue job sleep
[ 4410.519683] work queue job awake
[ 4410.519689] work queue job sleep
[ 4410.569697] work queue job awake
[ 4410.569700] work queue job sleep
[ 4410.619687] work queue job awake
[ 4410.619690] work queue job sleep
[ 4410.669685] work queue job awake
[ 4410.669688] work queue job sleep
[ 4410.719712] work queue job awake
[ 4410.719716] work queue job sleep
[ 4410.769685] work queue job awake
[ 4410.769688] work queue job sleep
[ 4410.819688] work queue job awake
[ 4410.819692] work queue job sleep
[ 4410.869676] work queue job awake
[ 4410.869680] work queue job sleep
[ 4410.919685] work queue job awake
[ 4410.919688] work queue job sleep
[ 4410.969686] work queue job awake
[ 4410.969689] work queue job sleep
[ 4411.019709] work queue job awake
[ 4411.019713] work queue job sleep
[ 4411.069685] work queue job awake
[ 4411.069690] work queue job sleep
[ 4411.119721] work queue job awake
[ 4411.119726] work queue job sleep
[ 4411.169716] work queue job awake
[ 4411.169721] work queue job sleep
[ 4411.219710] work queue job awake
[ 4411.219715] work queue job sleep
[ 4411.269711] work queue job awake
[ 4411.269715] work queue job sleep
[ 4411.319706] work queue job awake
[ 4411.319709] work queue job sleep
[ 4411.369685] work queue job awake
[ 4411.369689] work queue job sleep
[ 4411.419696] work queue job awake
[ 4411.419699] work queue job sleep
[ 4411.469687] work queue job awake
[ 4411.469690] work queue job sleep
[ 4411.519695] work queue job awake
[ 4411.519701] work queue job sleep
[ 4411.569699] work queue job awake
[ 4411.569704] work queue job sleep
[ 4411.619694] work queue job awake
[ 4411.619699] work queue job sleep
[ 4411.669688] work queue job awake
[ 4411.669692] work queue job sleep
[ 4411.719687] work queue job awake
[ 4411.719691] work queue job sleep
[ 4411.769681] work queue job awake
[ 4411.769685] work queue job sleep
[ 4411.819686] work queue job awake
[ 4411.819690] work queue job sleep
[ 4411.869683] work queue job awake
[ 4411.869686] work queue job sleep
[ 4411.919685] work queue job awake
[ 4411.919690] work queue job sleep
[ 4411.969689] work queue job awake
[ 4411.969692] work queue job sleep
[ 4412.019682] work queue job awake
[ 4412.019686] work queue job sleep
[ 4412.069685] work queue job awake
[ 4412.069689] work queue job sleep
[ 4412.119685] work queue job awake
[ 4412.119689] work queue job sleep
[ 4412.169676] work queue job awake
[ 4412.169680] work queue job sleep
[ 4412.219679] work queue job awake
[ 4412.219682] work queue job sleep
[ 4412.269677] work queue job awake
[ 4412.269680] work queue job sleep
[ 4412.319680] work queue job awake
[ 4412.319684] work queue job sleep
[ 4412.369674] work queue job awake
[ 4412.369677] work queue job sleep
[ 4412.419683] work queue job awake
[ 4412.419687] work queue job sleep
[ 4412.469686] work queue job awake
[ 4412.469689] work queue job sleep
[ 4412.519716] work queue job awake
[ 4412.519724] work queue job sleep
[ 4412.569710] work queue job awake
[ 4412.569714] work queue job sleep
[ 4412.619684] work queue job awake
[ 4412.619688] work queue job sleep
[ 4412.669683] work queue job awake
[ 4412.669686] work queue job sleep
[ 4412.719682] work queue job awake
[ 4412.719686] work queue job sleep
[ 4412.769686] work queue job awake
[ 4412.769690] work queue job sleep
[ 4412.819681] work queue job awake
[ 4412.819685] work queue job sleep
[ 4412.869682] work queue job awake
[ 4412.869686] work queue job sleep
[ 4412.919684] work queue job awake
[ 4412.919689] work queue job sleep
[ 4412.969683] work queue job awake
[ 4412.969686] work queue job sleep
[ 4413.019678] work queue job awake
[ 4413.019682] work queue job sleep
[ 4413.069679] work queue job awake
[ 4413.069682] work queue job sleep
[ 4413.119682] work queue job awake
[ 4413.119686] work queue job sleep
[ 4413.169681] work queue job awake
[ 4413.169685] work queue job sleep
[ 4413.219683] work queue job awake
[ 4413.219688] work queue job sleep
[ 4413.269680] work queue job awake
[ 4413.269684] work queue job sleep
[ 4413.319680] work queue job awake
[ 4413.319683] work queue job sleep
[ 4413.369680] work queue job awake
[ 4413.369683] work queue job sleep
[ 4413.419681] work queue job awake
[ 4413.419686] work queue job sleep
[ 4413.469680] work queue job awake
[ 4413.469683] work queue job sleep
[ 4413.519674] work queue job awake
[ 4413.519679] work queue job sleep
[ 4413.569692] work queue job awake
[ 4413.569696] work queue job sleep
[ 4413.619678] work queue job awake
[ 4413.619682] work queue job sleep
[ 4413.669670] work queue job awake
[ 4413.669673] work queue job sleep
[ 4413.719679] work queue job awake
[ 4413.719682] work queue job sleep
[ 4413.769686] work queue job awake
[ 4413.769690] work queue job sleep
[ 4413.819679] work queue job awake
[ 4413.819682] work queue job sleep
[ 4413.869689] work queue job awake
[ 4413.869694] work queue job sleep
[ 4413.919680] work queue job awake
[ 4413.919685] work queue job sleep
[ 4413.969685] work queue job awake
[ 4413.969690] work queue job sleep
[ 4414.019681] work queue job awake
[ 4414.019686] work queue job sleep
[ 4414.069680] work queue job awake
[ 4414.069684] work queue job sleep
[ 4414.119680] work queue job awake
[ 4414.119683] work queue job sleep
[ 4414.169680] work queue job awake
[ 4414.169684] work queue job sleep
[ 4414.219678] work queue job awake
[ 4414.219682] work queue job sleep
[ 4414.269676] work queue job awake
[ 4414.269679] work queue job sleep
[ 4414.319677] work queue job awake
[ 4414.319680] work queue job sleep
[ 4414.369677] work queue job awake
[ 4414.369680] work queue job sleep
[ 4414.419677] work queue job awake
[ 4414.419681] work queue job sleep
[ 4414.469680] work queue job awake
[ 4414.469683] work queue job sleep
[ 4414.519678] work queue job awake
[ 4414.519684] work queue job sleep
[ 4414.569677] work queue job awake
[ 4414.569680] work queue job sleep
[ 4414.619683] work queue job awake
[ 4414.619688] work queue job sleep
[ 4414.669684] work queue job awake
[ 4414.669689] work queue job sleep
[ 4414.719676] work queue job awake
[ 4414.719680] work queue job sleep
[ 4414.769677] work queue job awake
[ 4414.769680] work queue job sleep
[ 4414.819673] work queue job awake
[ 4414.819676] work queue job sleep
[ 4414.869676] work queue job awake
[ 4414.869680] work queue job sleep
[ 4414.919668] work queue job awake
[ 4414.919672] work queue job sleep
[ 4414.969682] work queue job awake
[ 4414.969685] work queue job sleep
[ 4415.019700] work queue job awake
[ 4415.019703] work queue job sleep
[ 4415.069678] work queue job awake
[ 4415.069682] work queue job sleep
[ 4415.119678] work queue job awake
[ 4415.119682] work queue job sleep
[ 4415.169676] work queue job awake
[ 4415.169680] work queue job sleep
[ 4415.219678] work queue job awake
[ 4415.219682] work queue job sleep
[ 4415.269675] work queue job awake
[ 4415.269679] work queue job sleep
[ 4415.319682] work queue job awake
[ 4415.319686] work queue job sleep
[ 4415.369677] work queue job awake
[ 4415.369680] work queue job sleep
[ 4415.419680] work queue job awake
[ 4415.419684] work queue job sleep
[ 4415.469676] work queue job awake
[ 4415.469680] work queue job sleep
[ 4415.519678] work queue job awake
[ 4415.519683] work queue job sleep
[ 4415.569675] work queue job awake
[ 4415.569679] work queue job sleep
[ 4415.619681] work queue job awake
[ 4415.619686] work queue job sleep
[ 4415.669693] work queue job awake
[ 4415.669698] work queue job sleep
[ 4415.719675] work queue job awake
[ 4415.719679] work queue job sleep
[ 4415.769674] work queue job awake
[ 4415.769678] work queue job sleep
[ 4415.819678] work queue job awake
[ 4415.819681] work queue job sleep
[ 4415.869671] work queue job awake
[ 4415.869674] work queue job sleep
[ 4415.919672] work queue job awake
[ 4415.919676] work queue job sleep
[ 4415.969669] work queue job awake
[ 4415.969672] work queue job sleep
[ 4416.019671] work queue job awake
[ 4416.019674] work queue job sleep
[ 4416.069675] work queue job awake
[ 4416.069678] work queue job sleep
[ 4416.119672] work queue job awake
[ 4416.119676] work queue job sleep
[ 4416.169670] work queue job awake
[ 4416.169674] work queue job sleep
[ 4416.219667] work queue job awake
[ 4416.219671] work queue job sleep
[ 4416.269663] work queue job awake
[ 4416.269667] work queue job sleep
[ 4416.319686] work queue job awake
[ 4416.319689] work queue job sleep
[ 4416.369670] work queue job awake
[ 4416.369674] work queue job sleep
[ 4416.419675] work queue job awake
[ 4416.419680] work queue job sleep
[ 4416.469680] work queue job awake
[ 4416.469684] work queue job sleep
[ 4416.519677] work queue job awake
[ 4416.519683] work queue job sleep
[ 4416.569673] work queue job awake
[ 4416.569677] work queue job sleep
[ 4416.619694] work queue job awake
[ 4416.619698] work queue job sleep
[ 4416.669673] work queue job awake
[ 4416.669676] work queue job sleep
[ 4416.719674] work queue job awake
[ 4416.719680] work queue job sleep
[ 4416.769674] work queue job awake
[ 4416.769678] work queue job sleep
[ 4416.819671] work queue job awake
[ 4416.819674] work queue job sleep
[ 4416.869672] work queue job awake
[ 4416.869675] work queue job sleep
[ 4416.919660] work queue job awake
[ 4416.919664] work queue job sleep
[ 4416.969672] work queue job awake
[ 4416.969676] work queue job sleep
[ 4417.019673] work queue job awake
[ 4417.019676] work queue job sleep
[ 4417.069671] work queue job awake
[ 4417.069674] work queue job sleep
[ 4417.119672] work queue job awake
[ 4417.119675] work queue job sleep
[ 4417.169668] work queue job awake
[ 4417.169671] work queue job sleep
[ 4417.219670] work queue job awake
[ 4417.219674] work queue job sleep
[ 4417.269671] work queue job awake
[ 4417.269675] work queue job sleep
[ 4417.319670] work queue job awake
[ 4417.319673] work queue job sleep
[ 4417.369680] work queue job awake
[ 4417.369684] work queue job sleep
[ 4417.419669] work queue job awake
[ 4417.419674] work queue job sleep
[ 4417.469664] work queue job awake
[ 4417.469667] work queue job sleep
[ 4417.519660] work queue job awake
[ 4417.519665] work queue job sleep
[ 4417.550271] task 9462 is leaving
[ 4417.550273] we find you!
[ 4417.550274] task 9462 de-registered!
[ 4417.569658] work queue job awake
[ 4417.569661] work queue job sleep
[ 4417.619671] work queue job awake
[ 4417.619675] work queue job sleep
[ 4417.669677] work queue job awake
[ 4417.669680] work queue job sleep
[ 4417.719677] work queue job awake
[ 4417.719680] work queue job sleep
[ 4417.769679] work queue job awake
[ 4417.769682] work queue job sleep
[ 4417.819685] work queue job awake
[ 4417.819688] work queue job sleep
[ 4417.869668] work queue job awake
[ 4417.869671] work queue job sleep
[ 4417.919667] work queue job awake
[ 4417.919670] work queue job sleep
[ 4417.969664] work queue job awake
[ 4417.969668] work queue job sleep
[ 4417.983443] task 9461 is leaving
[ 4417.983445] we find you!
[ 4417.983463] task 9461 de-registered!
[ 4453.057697] cdev opened
[ 4453.057727] dev op finished
[ 4453.058076] cdev closed
